[
    {
        "nome_arquivo": "home",
        "arquivos": [
            "bower_components/slick-carousel/slick/slick.css",
            "bower_components/animate-css/animate.css"    
        ]  
    }
]  